Coarse SNNM: DIH Prosecutions
…
# dev.off()

dih_dataset_with_num_dih %>%
  group_by(State) %>%
  summarise(mean_num_dih = mean(num_dih))

## # A tibble: 50 x 2
##    State       mean_num_dih
##  * <chr>              <dbl>
##  1 Alabama            0.275
##  2 Alaska             0.15 
##  3 Arizona            0.125
##  4 Arkansas           0.1  
##  5 California         1.27 
##  6 Colorado           0.675
##  7 Connecticut        0.975
##  8 Delaware           0.075
##  9 Florida            2.55 
## 10 Georgia            0.6  
## #  with 40 more rows
…
